{
  "command_timeout": 5,
  "templates_folder": "/Templates",
  "templates_pairs": [
    [
      "",
      ""
    ]
  ],
  "trigger_on_file_creation": false,
  "auto_jump_to_cursor": true,
  "enable_system_commands": false,
  "shell_path": "",
  "user_scripts_folder": "",
  "enable_folder_templates": true,
  "folder_templates": [
    {
      "folder": "",
      "template": ""
    }
  ],
  "syntax_highlighting": true,
  "syntax_highlighting_mobile": false,
  "enabled_templates_hotkeys": [
    ""
  ],
  "startup_templates": [
    ""
  ],
  "enable_ribbon_icon": true
}